^D:\USERS\MJ9617\SDL_WORK\SDL-GAME\DEPS\TINYXML\DEBUGTINYXMLTEST\XMLTEST.SBR
D:\USERS\MJ9617\SDL_WORK\SDL-GAME\DEPS\TINYXML\DEBUGTINYXMLTEST\TINYXMLTEST.BSC
^D:\USERS\MJ9617\SDL\SDL-GAME\DEPS\TINYXML\DEBUGTINYXMLTEST\XMLTEST.SBR
D:\USERS\MJ9617\SDL\SDL-GAME\DEPS\TINYXML\DEBUGTINYXMLTEST\TINYXMLTEST.BSC
