^D:\USERS\MJ9617\SDL_WORK\SDL-GAME\DEPS\TINYXML\XMLTEST.CPP
D:\USERS\MJ9617\SDL_WORK\SDL-GAME\DEPS\TINYXML\DEBUGTINYXMLTEST\VC120.PDB
D:\USERS\MJ9617\SDL_WORK\SDL-GAME\DEPS\TINYXML\DEBUGTINYXMLTEST\VC120.IDB
D:\USERS\MJ9617\SDL_WORK\SDL-GAME\DEPS\TINYXML\DEBUGTINYXMLTEST\XMLTEST.SBR
D:\USERS\MJ9617\SDL_WORK\SDL-GAME\DEPS\TINYXML\DEBUGTINYXMLTEST\XMLTEST.OBJ
^D:\USERS\MJ9617\SDL\SDL-GAME\DEPS\TINYXML\XMLTEST.CPP
D:\USERS\MJ9617\SDL\SDL-GAME\DEPS\TINYXML\DEBUGTINYXMLTEST\VC120.PDB
D:\USERS\MJ9617\SDL\SDL-GAME\DEPS\TINYXML\DEBUGTINYXMLTEST\VC120.IDB
D:\USERS\MJ9617\SDL\SDL-GAME\DEPS\TINYXML\DEBUGTINYXMLTEST\XMLTEST.SBR
D:\USERS\MJ9617\SDL\SDL-GAME\DEPS\TINYXML\DEBUGTINYXMLTEST\XMLTEST.OBJ
