^D:\USERS\MJ9617\SDL_WORK\SDL-GAME\DEPS\TINYXML\DEBUGTINYXML\TINYSTR.SBR|D:\USERS\MJ9617\SDL_WORK\SDL-GAME\DEPS\TINYXML\DEBUGTINYXML\TINYXML.SBR|D:\USERS\MJ9617\SDL_WORK\SDL-GAME\DEPS\TINYXML\DEBUGTINYXML\TINYXMLERROR.SBR|D:\USERS\MJ9617\SDL_WORK\SDL-GAME\DEPS\TINYXML\DEBUGTINYXML\TINYXMLPARSER.SBR
C:\WINDOWS\SYSTEM32\TZRES.DLL
D:\USERS\MJ9617\SDL_WORK\SDL-GAME\DEPS\TINYXML\DEBUGTINYXML\TINYSTR.SBR
D:\USERS\MJ9617\SDL_WORK\SDL-GAME\DEPS\TINYXML\DEBUGTINYXML\TINYXML.SBR
D:\USERS\MJ9617\SDL_WORK\SDL-GAME\DEPS\TINYXML\DEBUGTINYXML\TINYXMLERROR.SBR
D:\USERS\MJ9617\SDL_WORK\SDL-GAME\DEPS\TINYXML\DEBUGTINYXML\TINYXMLPARSER.SBR
^D:\USERS\MJ9617\SDL\SDL-GAME\DEPS\TINYXML\DEBUGTINYXML\TINYSTR.SBR|D:\USERS\MJ9617\SDL\SDL-GAME\DEPS\TINYXML\DEBUGTINYXML\TINYXML.SBR|D:\USERS\MJ9617\SDL\SDL-GAME\DEPS\TINYXML\DEBUGTINYXML\TINYXMLERROR.SBR|D:\USERS\MJ9617\SDL\SDL-GAME\DEPS\TINYXML\DEBUGTINYXML\TINYXMLPARSER.SBR
C:\WINDOWS\SYSTEM32\TZRES.DLL
D:\USERS\MJ9617\SDL\SDL-GAME\DEPS\TINYXML\DEBUGTINYXML\TINYSTR.SBR
D:\USERS\MJ9617\SDL\SDL-GAME\DEPS\TINYXML\DEBUGTINYXML\TINYXML.SBR
D:\USERS\MJ9617\SDL\SDL-GAME\DEPS\TINYXML\DEBUGTINYXML\TINYXMLERROR.SBR
D:\USERS\MJ9617\SDL\SDL-GAME\DEPS\TINYXML\DEBUGTINYXML\TINYXMLPARSER.SBR
