^D:\USERS\MJ9617\SDL_WORK\SDL-GAME\DEPS\TINYXML\DEBUGTINYXML\TINYSTR.OBJ|D:\USERS\MJ9617\SDL_WORK\SDL-GAME\DEPS\TINYXML\DEBUGTINYXML\TINYXML.OBJ|D:\USERS\MJ9617\SDL_WORK\SDL-GAME\DEPS\TINYXML\DEBUGTINYXML\TINYXMLERROR.OBJ|D:\USERS\MJ9617\SDL_WORK\SDL-GAME\DEPS\TINYXML\DEBUGTINYXML\TINYXMLPARSER.OBJ
/OUT:"D:\USERS\MJ9617\SDL_WORK\SDL-GAME\DEPS\TINYXML\DEBUGTINYXML\TINYXML.LIB" /NOLOGO "D:\USERS\MJ9617\SDL_WORK\SDL-GAME\DEPS\TINYXML\DEBUGTINYXML\TINYSTR.OBJ""D:\USERS\MJ9617\SDL_WORK\SDL-GAME\DEPS\TINYXML\DEBUGTINYXML\TINYXML.OBJ""D:\USERS\MJ9617\SDL_WORK\SDL-GAME\DEPS\TINYXML\DEBUGTINYXML\TINYXMLERROR.OBJ""D:\USERS\MJ9617\SDL_WORK\SDL-GAME\DEPS\TINYXML\DEBUGTINYXML\TINYXMLPARSER.OBJ"
^D:\USERS\MJ9617\SDL\SDL-GAME\DEPS\TINYXML\DEBUGTINYXML\TINYSTR.OBJ|D:\USERS\MJ9617\SDL\SDL-GAME\DEPS\TINYXML\DEBUGTINYXML\TINYXML.OBJ|D:\USERS\MJ9617\SDL\SDL-GAME\DEPS\TINYXML\DEBUGTINYXML\TINYXMLERROR.OBJ|D:\USERS\MJ9617\SDL\SDL-GAME\DEPS\TINYXML\DEBUGTINYXML\TINYXMLPARSER.OBJ
/OUT:"D:\USERS\MJ9617\SDL\SDL-GAME\DEPS\TINYXML\DEBUGTINYXML\TINYXML.LIB" /NOLOGO "D:\USERS\MJ9617\SDL\SDL-GAME\DEPS\TINYXML\DEBUGTINYXML\TINYSTR.OBJ""D:\USERS\MJ9617\SDL\SDL-GAME\DEPS\TINYXML\DEBUGTINYXML\TINYXML.OBJ""D:\USERS\MJ9617\SDL\SDL-GAME\DEPS\TINYXML\DEBUGTINYXML\TINYXMLERROR.OBJ""D:\USERS\MJ9617\SDL\SDL-GAME\DEPS\TINYXML\DEBUGTINYXML\TINYXMLPARSER.OBJ"
