^C:\USERS\MEITH\DESKTOP\SDL\SDL-GAME\DEPS\TINYXML\X64\DEBUG\TINYXML.LIB|C:\USERS\MEITH\DESKTOP\SDL\SDL-GAME\DEPS\TINYXML\X64\DEBUG\XMLTEST.OBJ
C:\USERS\MEITH\DESKTOP\SDL\SDL-GAME\DEPS\TINYXML\X64\DEBUG\TINYXMLTEST.ILK
C:\USERS\MEITH\DESKTOP\SDL\SDL-GAME\DEPS\TINYXML\X64\DEBUG\TINYXMLTEST.EXE
C:\USERS\MEITH\DESKTOP\SDL\SDL-GAME\DEPS\TINYXML\X64\DEBUG\TINYXMLTEST.PDB
