^D:\USERS\MJ9617\SDL\SDL-GAME\SDL-GAME\ANIMATEDGRAPHIC.CPP|D:\USERS\MJ9617\SDL\SDL-GAME\SDL-GAME\ENEMY.CPP|D:\USERS\MJ9617\SDL\SDL-GAME\SDL-GAME\GAME.CPP|D:\USERS\MJ9617\SDL\SDL-GAME\SDL-GAME\GAMEOBJECTFACTORY.CPP|D:\USERS\MJ9617\SDL\SDL-GAME\SDL-GAME\GAMEOVERSTATE.CPP|D:\USERS\MJ9617\SDL\SDL-GAME\SDL-GAME\GAMESTATE.CPP|D:\USERS\MJ9617\SDL\SDL-GAME\SDL-GAME\GAMESTATEMACHINE.CPP|D:\USERS\MJ9617\SDL\SDL-GAME\SDL-GAME\INPUTHANDLER.CPP|D:\USERS\MJ9617\SDL\SDL-GAME\SDL-GAME\MAIN.CPP|D:\USERS\MJ9617\SDL\SDL-GAME\SDL-GAME\MAINMENUSTATE.CPP|D:\USERS\MJ9617\SDL\SDL-GAME\SDL-GAME\MENUBUTTON.CPP|D:\USERS\MJ9617\SDL\SDL-GAME\SDL-GAME\PAUSESTATE.CPP|D:\USERS\MJ9617\SDL\SDL-GAME\SDL-GAME\PLAYER.CPP|D:\USERS\MJ9617\SDL\SDL-GAME\SDL-GAME\PLAYSTATE.CPP|D:\USERS\MJ9617\SDL\SDL-GAME\SDL-GAME\SDLGAMEOBJECT.CPP|D:\USERS\MJ9617\SDL\SDL-GAME\SDL-GAME\STATEPARSER.CPP|D:\USERS\MJ9617\SDL\SDL-GAME\SDL-GAME\TEXTUREMANAGER.CPP
D:\USERS\MJ9617\SDL\SDL-GAME\SDL-GAME\X64\DEBUG\VC120.PDB
D:\USERS\MJ9617\SDL\SDL-GAME\SDL-GAME\X64\DEBUG\VC120.IDB
D:\USERS\MJ9617\SDL\SDL-GAME\SDL-GAME\X64\DEBUG\ANIMATEDGRAPHIC.OBJ
D:\USERS\MJ9617\SDL\SDL-GAME\SDL-GAME\X64\DEBUG\GAME.OBJ
D:\USERS\MJ9617\SDL\SDL-GAME\SDL-GAME\X64\DEBUG\GAMEOBJECTFACTORY.OBJ
D:\USERS\MJ9617\SDL\SDL-GAME\SDL-GAME\X64\DEBUG\GAMESTATE.OBJ
D:\USERS\MJ9617\SDL\SDL-GAME\SDL-GAME\X64\DEBUG\GAMESTATEMACHINE.OBJ
D:\USERS\MJ9617\SDL\SDL-GAME\SDL-GAME\X64\DEBUG\INPUTHANDLER.OBJ
D:\USERS\MJ9617\SDL\SDL-GAME\SDL-GAME\X64\DEBUG\MAIN.OBJ
D:\USERS\MJ9617\SDL\SDL-GAME\SDL-GAME\X64\DEBUG\MENUBUTTON.OBJ
D:\USERS\MJ9617\SDL\SDL-GAME\SDL-GAME\X64\DEBUG\MAINMENUSTATE.OBJ
D:\USERS\MJ9617\SDL\SDL-GAME\SDL-GAME\X64\DEBUG\PAUSESTATE.OBJ
D:\USERS\MJ9617\SDL\SDL-GAME\SDL-GAME\X64\DEBUG\PLAYER.OBJ
D:\USERS\MJ9617\SDL\SDL-GAME\SDL-GAME\X64\DEBUG\PLAYSTATE.OBJ
D:\USERS\MJ9617\SDL\SDL-GAME\SDL-GAME\X64\DEBUG\SDLGAMEOBJECT.OBJ
D:\USERS\MJ9617\SDL\SDL-GAME\SDL-GAME\X64\DEBUG\STATEPARSER.OBJ
D:\USERS\MJ9617\SDL\SDL-GAME\SDL-GAME\X64\DEBUG\TEXTUREMANAGER.OBJ
^D:\USERS\MJ9617\SDL\SDL-GAME\SDL-GAME\ANIMATEDGRAPHIC.CPP
D:\USERS\MJ9617\SDL\SDL-GAME\SDL-GAME\X64\DEBUG\VC120.PDB
^D:\USERS\MJ9617\SDL\SDL-GAME\SDL-GAME\ENEMY.CPP
D:\USERS\MJ9617\SDL\SDL-GAME\SDL-GAME\X64\DEBUG\VC120.PDB
D:\USERS\MJ9617\SDL\SDL-GAME\SDL-GAME\X64\DEBUG\VC120.IDB
D:\USERS\MJ9617\SDL\SDL-GAME\SDL-GAME\X64\DEBUG\ENEMY.OBJ
^D:\USERS\MJ9617\SDL\SDL-GAME\SDL-GAME\GAME.CPP
D:\USERS\MJ9617\SDL\SDL-GAME\SDL-GAME\X64\DEBUG\VC120.PDB
^D:\USERS\MJ9617\SDL\SDL-GAME\SDL-GAME\GAMEOBJECTFACTORY.CPP
D:\USERS\MJ9617\SDL\SDL-GAME\SDL-GAME\X64\DEBUG\VC120.PDB
^D:\USERS\MJ9617\SDL\SDL-GAME\SDL-GAME\GAMEOVERSTATE.CPP
D:\USERS\MJ9617\SDL\SDL-GAME\SDL-GAME\X64\DEBUG\VC120.PDB
D:\USERS\MJ9617\SDL\SDL-GAME\SDL-GAME\X64\DEBUG\VC120.IDB
D:\USERS\MJ9617\SDL\SDL-GAME\SDL-GAME\X64\DEBUG\GAMEOVERSTATE.OBJ
^D:\USERS\MJ9617\SDL\SDL-GAME\SDL-GAME\GAMESTATE.CPP
D:\USERS\MJ9617\SDL\SDL-GAME\SDL-GAME\X64\DEBUG\VC120.PDB
^D:\USERS\MJ9617\SDL\SDL-GAME\SDL-GAME\GAMESTATEMACHINE.CPP
D:\USERS\MJ9617\SDL\SDL-GAME\SDL-GAME\X64\DEBUG\VC120.PDB
^D:\USERS\MJ9617\SDL\SDL-GAME\SDL-GAME\INPUTHANDLER.CPP
D:\USERS\MJ9617\SDL\SDL-GAME\SDL-GAME\X64\DEBUG\VC120.PDB
^D:\USERS\MJ9617\SDL\SDL-GAME\SDL-GAME\MAIN.CPP
D:\USERS\MJ9617\SDL\SDL-GAME\SDL-GAME\X64\DEBUG\VC120.PDB
^D:\USERS\MJ9617\SDL\SDL-GAME\SDL-GAME\MENUBUTTON.CPP
D:\USERS\MJ9617\SDL\SDL-GAME\SDL-GAME\X64\DEBUG\VC120.PDB
^D:\USERS\MJ9617\SDL\SDL-GAME\SDL-GAME\MAINMENUSTATE.CPP
D:\USERS\MJ9617\SDL\SDL-GAME\SDL-GAME\X64\DEBUG\VC120.PDB
^D:\USERS\MJ9617\SDL\SDL-GAME\SDL-GAME\PAUSESTATE.CPP
D:\USERS\MJ9617\SDL\SDL-GAME\SDL-GAME\X64\DEBUG\VC120.PDB
^D:\USERS\MJ9617\SDL\SDL-GAME\SDL-GAME\PLAYER.CPP
D:\USERS\MJ9617\SDL\SDL-GAME\SDL-GAME\X64\DEBUG\VC120.PDB
D:\USERS\MJ9617\SDL\SDL-GAME\SDL-GAME\X64\DEBUG\VC120.IDB
D:\USERS\MJ9617\SDL\SDL-GAME\SDL-GAME\X64\DEBUG\PLAYER.OBJ
^D:\USERS\MJ9617\SDL\SDL-GAME\SDL-GAME\PLAYSTATE.CPP
D:\USERS\MJ9617\SDL\SDL-GAME\SDL-GAME\X64\DEBUG\VC120.PDB
D:\USERS\MJ9617\SDL\SDL-GAME\SDL-GAME\X64\DEBUG\VC120.IDB
D:\USERS\MJ9617\SDL\SDL-GAME\SDL-GAME\X64\DEBUG\PLAYSTATE.OBJ
^D:\USERS\MJ9617\SDL\SDL-GAME\SDL-GAME\SDLGAMEOBJECT.CPP
D:\USERS\MJ9617\SDL\SDL-GAME\SDL-GAME\X64\DEBUG\VC120.PDB
^D:\USERS\MJ9617\SDL\SDL-GAME\SDL-GAME\STATEPARSER.CPP
D:\USERS\MJ9617\SDL\SDL-GAME\SDL-GAME\X64\DEBUG\VC120.PDB
^D:\USERS\MJ9617\SDL\SDL-GAME\SDL-GAME\TEXTUREMANAGER.CPP
D:\USERS\MJ9617\SDL\SDL-GAME\SDL-GAME\X64\DEBUG\VC120.PDB
^D:\USERS\MJ9617\SDL\SDL-GAME\SDL-GAME\ENEMY.CPP|D:\USERS\MJ9617\SDL\SDL-GAME\SDL-GAME\GAME.CPP|D:\USERS\MJ9617\SDL\SDL-GAME\SDL-GAME\GAMEOVERSTATE.CPP|D:\USERS\MJ9617\SDL\SDL-GAME\SDL-GAME\INPUTHANDLER.CPP|D:\USERS\MJ9617\SDL\SDL-GAME\SDL-GAME\MAIN.CPP|D:\USERS\MJ9617\SDL\SDL-GAME\SDL-GAME\MAINMENUSTATE.CPP|D:\USERS\MJ9617\SDL\SDL-GAME\SDL-GAME\PAUSESTATE.CPP|D:\USERS\MJ9617\SDL\SDL-GAME\SDL-GAME\PLAYSTATE.CPP|D:\USERS\MJ9617\SDL\SDL-GAME\SDL-GAME\SDLGAMEOBJECT.CPP|D:\USERS\MJ9617\SDL\SDL-GAME\SDL-GAME\STATEPARSER.CPP
D:\USERS\MJ9617\SDL\SDL-GAME\SDL-GAME\X64\DEBUG\VC120.PDB
D:\USERS\MJ9617\SDL\SDL-GAME\SDL-GAME\X64\DEBUG\VC120.IDB
D:\USERS\MJ9617\SDL\SDL-GAME\SDL-GAME\X64\DEBUG\ENEMY.OBJ
D:\USERS\MJ9617\SDL\SDL-GAME\SDL-GAME\X64\DEBUG\GAMEOVERSTATE.OBJ
D:\USERS\MJ9617\SDL\SDL-GAME\SDL-GAME\X64\DEBUG\GAME.OBJ
D:\USERS\MJ9617\SDL\SDL-GAME\SDL-GAME\X64\DEBUG\INPUTHANDLER.OBJ
D:\USERS\MJ9617\SDL\SDL-GAME\SDL-GAME\X64\DEBUG\MAINMENUSTATE.OBJ
D:\USERS\MJ9617\SDL\SDL-GAME\SDL-GAME\X64\DEBUG\PAUSESTATE.OBJ
D:\USERS\MJ9617\SDL\SDL-GAME\SDL-GAME\X64\DEBUG\PLAYSTATE.OBJ
D:\USERS\MJ9617\SDL\SDL-GAME\SDL-GAME\X64\DEBUG\SDLGAMEOBJECT.OBJ
D:\USERS\MJ9617\SDL\SDL-GAME\SDL-GAME\X64\DEBUG\STATEPARSER.OBJ
D:\USERS\MJ9617\SDL\SDL-GAME\SDL-GAME\X64\DEBUG\MAIN.OBJ
^D:\USERS\MJ9617\DESKTOP\SDL\SDL-GAME\SDL-GAME\ANIMATEDGRAPHIC.CPP|D:\USERS\MJ9617\DESKTOP\SDL\SDL-GAME\SDL-GAME\ENEMY.CPP|D:\USERS\MJ9617\DESKTOP\SDL\SDL-GAME\SDL-GAME\GAME.CPP|D:\USERS\MJ9617\DESKTOP\SDL\SDL-GAME\SDL-GAME\GAMEOBJECTFACTORY.CPP|D:\USERS\MJ9617\DESKTOP\SDL\SDL-GAME\SDL-GAME\GAMEOVERSTATE.CPP|D:\USERS\MJ9617\DESKTOP\SDL\SDL-GAME\SDL-GAME\GAMESTATE.CPP|D:\USERS\MJ9617\DESKTOP\SDL\SDL-GAME\SDL-GAME\GAMESTATEMACHINE.CPP|D:\USERS\MJ9617\DESKTOP\SDL\SDL-GAME\SDL-GAME\INPUTHANDLER.CPP|D:\USERS\MJ9617\DESKTOP\SDL\SDL-GAME\SDL-GAME\MAIN.CPP|D:\USERS\MJ9617\DESKTOP\SDL\SDL-GAME\SDL-GAME\MAINMENUSTATE.CPP|D:\USERS\MJ9617\DESKTOP\SDL\SDL-GAME\SDL-GAME\MENUBUTTON.CPP|D:\USERS\MJ9617\DESKTOP\SDL\SDL-GAME\SDL-GAME\PAUSESTATE.CPP|D:\USERS\MJ9617\DESKTOP\SDL\SDL-GAME\SDL-GAME\PLAYER.CPP|D:\USERS\MJ9617\DESKTOP\SDL\SDL-GAME\SDL-GAME\PLAYSTATE.CPP|D:\USERS\MJ9617\DESKTOP\SDL\SDL-GAME\SDL-GAME\SDLGAMEOBJECT.CPP|D:\USERS\MJ9617\DESKTOP\SDL\SDL-GAME\SDL-GAME\STATEPARSER.CPP|D:\USERS\MJ9617\DESKTOP\SDL\SDL-GAME\SDL-GAME\TEXTUREMANAGER.CPP
D:\USERS\MJ9617\DESKTOP\SDL\SDL-GAME\SDL-GAME\X64\DEBUG\VC120.PDB
D:\USERS\MJ9617\DESKTOP\SDL\SDL-GAME\SDL-GAME\X64\DEBUG\VC120.IDB
D:\USERS\MJ9617\DESKTOP\SDL\SDL-GAME\SDL-GAME\X64\DEBUG\ANIMATEDGRAPHIC.OBJ
D:\USERS\MJ9617\DESKTOP\SDL\SDL-GAME\SDL-GAME\X64\DEBUG\ENEMY.OBJ
D:\USERS\MJ9617\DESKTOP\SDL\SDL-GAME\SDL-GAME\X64\DEBUG\GAME.OBJ
D:\USERS\MJ9617\DESKTOP\SDL\SDL-GAME\SDL-GAME\X64\DEBUG\GAMEOBJECTFACTORY.OBJ
D:\USERS\MJ9617\DESKTOP\SDL\SDL-GAME\SDL-GAME\X64\DEBUG\GAMEOVERSTATE.OBJ
D:\USERS\MJ9617\DESKTOP\SDL\SDL-GAME\SDL-GAME\X64\DEBUG\GAMESTATE.OBJ
D:\USERS\MJ9617\DESKTOP\SDL\SDL-GAME\SDL-GAME\X64\DEBUG\GAMESTATEMACHINE.OBJ
D:\USERS\MJ9617\DESKTOP\SDL\SDL-GAME\SDL-GAME\X64\DEBUG\INPUTHANDLER.OBJ
D:\USERS\MJ9617\DESKTOP\SDL\SDL-GAME\SDL-GAME\X64\DEBUG\MAIN.OBJ
D:\USERS\MJ9617\DESKTOP\SDL\SDL-GAME\SDL-GAME\X64\DEBUG\MENUBUTTON.OBJ
D:\USERS\MJ9617\DESKTOP\SDL\SDL-GAME\SDL-GAME\X64\DEBUG\MAINMENUSTATE.OBJ
D:\USERS\MJ9617\DESKTOP\SDL\SDL-GAME\SDL-GAME\X64\DEBUG\PAUSESTATE.OBJ
D:\USERS\MJ9617\DESKTOP\SDL\SDL-GAME\SDL-GAME\X64\DEBUG\PLAYER.OBJ
D:\USERS\MJ9617\DESKTOP\SDL\SDL-GAME\SDL-GAME\X64\DEBUG\PLAYSTATE.OBJ
D:\USERS\MJ9617\DESKTOP\SDL\SDL-GAME\SDL-GAME\X64\DEBUG\SDLGAMEOBJECT.OBJ
D:\USERS\MJ9617\DESKTOP\SDL\SDL-GAME\SDL-GAME\X64\DEBUG\STATEPARSER.OBJ
D:\USERS\MJ9617\DESKTOP\SDL\SDL-GAME\SDL-GAME\X64\DEBUG\TEXTUREMANAGER.OBJ
^D:\USERS\MJ9617\DESKTOP\SDL\SDL-GAME\SDL-GAME\ANIMATEDGRAPHIC.CPP
D:\USERS\MJ9617\DESKTOP\SDL\SDL-GAME\SDL-GAME\X64\DEBUG\VC120.PDB
^D:\USERS\MJ9617\DESKTOP\SDL\SDL-GAME\SDL-GAME\ENEMY.CPP
D:\USERS\MJ9617\DESKTOP\SDL\SDL-GAME\SDL-GAME\X64\DEBUG\VC120.PDB
^D:\USERS\MJ9617\DESKTOP\SDL\SDL-GAME\SDL-GAME\GAME.CPP
D:\USERS\MJ9617\DESKTOP\SDL\SDL-GAME\SDL-GAME\X64\DEBUG\VC120.PDB
^D:\USERS\MJ9617\DESKTOP\SDL\SDL-GAME\SDL-GAME\GAMEOBJECTFACTORY.CPP
D:\USERS\MJ9617\DESKTOP\SDL\SDL-GAME\SDL-GAME\X64\DEBUG\VC120.PDB
^D:\USERS\MJ9617\DESKTOP\SDL\SDL-GAME\SDL-GAME\GAMEOVERSTATE.CPP
D:\USERS\MJ9617\DESKTOP\SDL\SDL-GAME\SDL-GAME\X64\DEBUG\VC120.PDB
^D:\USERS\MJ9617\DESKTOP\SDL\SDL-GAME\SDL-GAME\GAMESTATE.CPP
D:\USERS\MJ9617\DESKTOP\SDL\SDL-GAME\SDL-GAME\X64\DEBUG\VC120.PDB
^D:\USERS\MJ9617\DESKTOP\SDL\SDL-GAME\SDL-GAME\GAMESTATEMACHINE.CPP
D:\USERS\MJ9617\DESKTOP\SDL\SDL-GAME\SDL-GAME\X64\DEBUG\VC120.PDB
^D:\USERS\MJ9617\DESKTOP\SDL\SDL-GAME\SDL-GAME\INPUTHANDLER.CPP
D:\USERS\MJ9617\DESKTOP\SDL\SDL-GAME\SDL-GAME\X64\DEBUG\VC120.PDB
^D:\USERS\MJ9617\DESKTOP\SDL\SDL-GAME\SDL-GAME\MAIN.CPP
D:\USERS\MJ9617\DESKTOP\SDL\SDL-GAME\SDL-GAME\X64\DEBUG\VC120.PDB
^D:\USERS\MJ9617\DESKTOP\SDL\SDL-GAME\SDL-GAME\MENUBUTTON.CPP
D:\USERS\MJ9617\DESKTOP\SDL\SDL-GAME\SDL-GAME\X64\DEBUG\VC120.PDB
^D:\USERS\MJ9617\DESKTOP\SDL\SDL-GAME\SDL-GAME\MAINMENUSTATE.CPP
D:\USERS\MJ9617\DESKTOP\SDL\SDL-GAME\SDL-GAME\X64\DEBUG\VC120.PDB
^D:\USERS\MJ9617\DESKTOP\SDL\SDL-GAME\SDL-GAME\PAUSESTATE.CPP
D:\USERS\MJ9617\DESKTOP\SDL\SDL-GAME\SDL-GAME\X64\DEBUG\VC120.PDB
^D:\USERS\MJ9617\DESKTOP\SDL\SDL-GAME\SDL-GAME\PLAYER.CPP
D:\USERS\MJ9617\DESKTOP\SDL\SDL-GAME\SDL-GAME\X64\DEBUG\VC120.PDB
^D:\USERS\MJ9617\DESKTOP\SDL\SDL-GAME\SDL-GAME\PLAYSTATE.CPP
D:\USERS\MJ9617\DESKTOP\SDL\SDL-GAME\SDL-GAME\X64\DEBUG\VC120.PDB
^D:\USERS\MJ9617\DESKTOP\SDL\SDL-GAME\SDL-GAME\SDLGAMEOBJECT.CPP
D:\USERS\MJ9617\DESKTOP\SDL\SDL-GAME\SDL-GAME\X64\DEBUG\VC120.PDB
^D:\USERS\MJ9617\DESKTOP\SDL\SDL-GAME\SDL-GAME\STATEPARSER.CPP
D:\USERS\MJ9617\DESKTOP\SDL\SDL-GAME\SDL-GAME\X64\DEBUG\VC120.PDB
^D:\USERS\MJ9617\DESKTOP\SDL\SDL-GAME\SDL-GAME\TEXTUREMANAGER.CPP
D:\USERS\MJ9617\DESKTOP\SDL\SDL-GAME\SDL-GAME\X64\DEBUG\VC120.PDB
